…
-   un parámetro `wave` para elegir el número de ola;

-   un parámetro *`segment_by`* para elegir la variable de segmentación

(*The calculation will be done based on the downloaded data with `get_icg_raw()`. The `compute_icg()` function has a parameter to choose the wave and other to choose the segmentation variable*)

**Cálculo simple: `icg` para toda la base de datos**


```r
  
  # donwnload data 
 
(opinAr::get_icg_raw() -> icg_data)
#> # A tibble: 281,786 × 33
#>      ola  caso  anio   mes   dia ciudad  zona    region sexo    edad    edu     educacion
#>    <dbl> <dbl> <dbl> <dbl> <dbl> <dbl+l> <dbl+l>  <dbl> <dbl+l> <dbl+l> <dbl+l> <dbl+lbl>
#>  1   507     1  2002     4    NA 0 [GBA] 2 [BsA…     NA 0 [Muj… 3 [más… 1 [Pri… 3 [PrimC…
#>  2   507     2  2002     4    NA 0 [GBA] 2 [BsA…     NA 0 [Muj… 3 [más… 3 [Ter… 7 [TercC…
#>  3   507     3  2002     4    NA 0 [GBA] 2 [BsA…     NA 0 [Muj… 2 [30a… 2 [Sec… 5 [Secun…
#>  4   507     4  2002     4    NA 0 [GBA] 2 [BsA…     NA 0 [Muj… 3 [más… 1 [Pri… 3 [PrimC…
#>  5   507     5  2002     4    NA 0 [GBA] 2 [BsA…     NA 0 [Muj… 2 [30a… 3 [Ter… 9 [UnivC…
#>  6   507     6  2002     4    NA 0 [GBA] 2 [BsA…     NA 0 [Muj… 2 [30a… 3 [Ter… 7 [TercC…
#>  7   507     7  2002     4    NA 0 [GBA] 2 [BsA…     NA 1 [Hom… 1 [18a… 3 [Ter… 8 [UnivI…
#>  8   507     8  2002     4    NA 0 [GBA] 2 [BsA…     NA 1 [Hom… 3 [más… 1 [Pri… 3 [PrimC…
#>  9   507     9  2002     4    NA 0 [GBA] 2 [BsA…     NA 1 [Hom… 1 [18a… 2 [Sec… 4 [Secun…
#> 10   507    10  2002     4    NA 0 [GBA] 2 [BsA…     NA 0 [Muj… 2 [30a… 3 [Ter… 7 [TercC…
#> # ℹ 281,776 more rows
#> # ℹ 21 more variables: sit_ec <dbl+lbl>, sit_fu <dbl+lbl>, sitec <dbl+lbl>,
#> #   mejora <dbl+lbl>, eval_gob <dbl+lbl>, eval_gob_rec <dbl>, benef_gob <dbl+lbl>,
#> #   benef_gob_rec <dbl>, adm_gp <dbl+lbl>, adm_gp_rec <dbl>, cor_gob <dbl+lbl>,
#> #   cor_gob_rec <dbl>, resol_prob <dbl+lbl>, resol_prob_rec <dbl>, icg <dbl>,
#> #   edad2 <dbl>, tipo_telef <dbl+lbl>, habitat <dbl+lbl>, region_2 <dbl+lbl>,
#> #   zonacaba <dbl>, ponderacion_utdt <dbl>
 
 # compute ICG
 
opinAr::compute_icg(data = icg_data)
#> # A tibble: 266 × 7
#>      ola   icg eval_gob_rec benef_gob_rec adm_gp_rec cor_gob_rec resol_prob_rec
#>    <dbl> <dbl>        <dbl>         <dbl>      <dbl>       <dbl>          <dbl>
#>  1   502  1.04         0.4           0.82       0.5         1.99           1.47
#>  2   503  0.76         0.19          0.66       0.36        1.46           1.12
#>  3   504  1.36         0.91          1.37       0.44        1.13           2.94
#>  4   505  0.98         0.52          0.94       0.31        1.11           2.03
#>  5   506  0.86         0.42          0.59       0.47        1.07           1.76
#>  6   507  0.78         0.23          0.58       0.33        1.09           1.7 
#>  7   508  0.47         0.16          0.39       0.07        0.77           0.93
#>  8   509  0.48         0.19          0.38       0.21        0.82           0.81
#>  9   510  0.4          0.09          0.39       0.21        0.73           0.59
#> 10   511  0.43         0.09          0.37       0.24        0.69           0.74
#> # ℹ 256 more rows
```

**Cálculo segmentado: `icg` con apertura por género**


```r
  

 ###  ICG by gender
 
   opinAr::compute_icg(data = icg_data , segment_by = sexo)
#> # A tibble: 532 × 8
#> # Groups:   ola [266]
#>      ola sexo        icg eval_gob_rec benef_gob_rec adm_gp_rec cor_gob_rec resol_prob_rec
#>    <dbl> <dbl+lbl> <dbl>        <dbl>         <dbl>      <dbl>       <dbl>          <dbl>
#>  1   502 0 [Mujer]  0.98         0.44          0.86       0.41        1.78           1.41
#>  2   502 1 [Hombr…  1.1          0.35          0.78       0.61        2.22           1.53
#>  3   503 0 [Mujer]  0.68         0.25          0.6        0.29        1.2            1.04
#>  4   503 1 [Hombr…  0.86         0.13          0.72       0.45        1.78           1.21
#>  5   504 0 [Mujer]  1.32         0.89          1.18       0.5         1.11           2.9 
#>  6   504 1 [Hombr…  1.41         0.93          1.65       0.35        1.15           2.99
#>  7   505 0 [Mujer]  1            0.51          0.98       0.32        1.13           2.06
#>  8   505 1 [Hombr…  0.96         0.53          0.89       0.31        1.07           2   
#>  9   506 0 [Mujer]  0.72         0.38          0.61       0.39        0.78           1.46
#> 10   506 1 [Hombr…  1.03         0.46          0.58       0.56        1.41           2.13
#> # ℹ 522 more rows
```
…
