Data
…
Obtener datos con get_icg_raw() (get
data)

get_icg_raw() es la función principal para hacernos de
los datos disponibles.

(get_icg_raw() is the main function to get the
available data).

library(opinAr)

datos <- get_icg_raw()

datos
#> # A tibble: 281,786 × 33
#>      ola  caso  anio   mes   dia ciudad  zona    region sexo    edad    edu     educacion
#>    <dbl> <dbl> <dbl> <dbl> <dbl> <dbl+l> <dbl+l>  <dbl> <dbl+l> <dbl+l> <dbl+l> <dbl+lbl>
#>  1   507     1  2002     4    NA 0 [GBA] 2 [BsA…     NA 0 [Muj… 3 [más… 1 [Pri… 3 [PrimC…
#>  2   507     2  2002     4    NA 0 [GBA] 2 [BsA…     NA 0 [Muj… 3 [más… 3 [Ter… 7 [TercC…
#>  3   507     3  2002     4    NA 0 [GBA] 2 [BsA…     NA 0 [Muj… 2 [30a… 2 [Sec… 5 [Secun…
#>  4   507     4  2002     4    NA 0 [GBA] 2 [BsA…     NA 0 [Muj… 3 [más… 1 [Pri… 3 [PrimC…
#>  5   507     5  2002     4    NA 0 [GBA] 2 [BsA…     NA 0 [Muj… 2 [30a… 3 [Ter… 9 [UnivC…
#>  6   507     6  2002     4    NA 0 [GBA] 2 [BsA…     NA 0 [Muj… 2 [30a… 3 [Ter… 7 [TercC…
#>  7   507     7  2002     4    NA 0 [GBA] 2 [BsA…     NA 1 [Hom… 1 [18a… 3 [Ter… 8 [UnivI…
#>  8   507     8  2002     4    NA 0 [GBA] 2 [BsA…     NA 1 [Hom… 3 [más… 1 [Pri… 3 [PrimC…
#>  9   507     9  2002     4    NA 0 [GBA] 2 [BsA…     NA 1 [Hom… 1 [18a… 2 [Sec… 4 [Secun…
#> 10   507    10  2002     4    NA 0 [GBA] 2 [BsA…     NA 0 [Muj… 2 [30a… 3 [Ter… 7 [TercC…
#> # ℹ 281,776 more rows
#> # ℹ 21 more variables: sit_ec <dbl+lbl>, sit_fu <dbl+lbl>, sitec <dbl+lbl>,
#> #   mejora <dbl+lbl>, eval_gob <dbl+lbl>, eval_gob_rec <dbl>, benef_gob <dbl+lbl>,
#> #   benef_gob_rec <dbl>, adm_gp <dbl+lbl>, adm_gp_rec <dbl>, cor_gob <dbl+lbl>,
#> #   cor_gob_rec <dbl>, resol_prob <dbl+lbl>, resol_prob_rec <dbl>, icg <dbl>,
#> #   edad2 <dbl>, tipo_telef <dbl+lbl>, habitat <dbl+lbl>, region_2 <dbl+lbl>,
#> #   zonacaba <dbl>, ponderacion_utdt <dbl>
…
La función show_waves() muestra las olas y el mes y año
correspondientes. Por defecto el parámetro viewer = FALSE
imprime el resultado en consola. Si en cambio escribimos
viewer = TRUE los datos se presentan en el Viewer
de RStudio.

(show_waves() function displays the number of waves
and the corresponding year and month. By default the parameter
viewer = FALSE prints the result in console. If instead we
write viewer = TRUE data is presented in the
RStudio Viewer).

show_waves(datos)
#> # A tibble: 266 × 3
#>      ola   mes  anio
#>    <dbl> <dbl> <dbl>
#>  1   502    11  2001
#>  2   503    12  2001
#>  3   504     1  2002
#>  4   505     2  2002
#>  5   506     3  2002
#>  6   507     4  2002
#>  7   508     5  2002
#>  8   509     6  2002
#>  9   510     7  2002
#> 10   511     8  2002
#> # ℹ 256 more rows
…
